Finance Project on R
…
    legend

Loading required package: quantmod

Loading required package: TTR

Warning: package 'TTR' was built under R version 4.3.1

Registered S3 method overwritten by 'quantmod':
  method            from
  as.zoo.data.frame zoo 

tq_get("AAPL", get = "stock.prices", from = "2024-01-01", to = "2024-02-18")

# A tibble: 33 × 8
   symbol date        open  high   low close   volume adjusted
   <chr>  <date>     <dbl> <dbl> <dbl> <dbl>    <dbl>    <dbl>
 1 AAPL   2024-01-02  187.  188.  184.  186. 82488700     185.
 2 AAPL   2024-01-03  184.  186.  183.  184. 58414500     184.
 3 AAPL   2024-01-04  182.  183.  181.  182. 71983600     182.
 4 AAPL   2024-01-05  182.  183.  180.  181. 62303300     181.
 5 AAPL   2024-01-08  182.  186.  182.  186. 59144500     185.
 6 AAPL   2024-01-09  184.  185.  183.  185. 42841800     185.
 7 AAPL   2024-01-10  184.  186.  184.  186. 46792900     186.
 8 AAPL   2024-01-11  187.  187.  184.  186. 49128400     185.
 9 AAPL   2024-01-12  186.  187.  185.  186. 40444700     186.
10 AAPL   2024-01-16  182.  184.  181.  184. 65603000     183.
# ℹ 23 more rows
