Pearl Fund: A Guide on Portfolio Anlaysis & Optmization
…
The following code combines all the funds of interest that intend to be comparing into a single table (wide format).

# Combined Table (3 Funds)
three_fund_combined_table_of_returns = left_join(spy_combined_table_of_returns, nasdaq_returns_monthly, by="date")

three_fund_combined_table_of_returns

# A tibble: 183 × 4
   date       AggregateMonthlyReturns SPYMonthlyReturns NASDAQMonthlyReturns
   <date>                       <dbl>             <dbl>                <dbl>
 1 2004-01-30                 0.0145            0.0202                0.0195
 2 2004-02-27                 0.0220            0.0136               -0.0135
 3 2004-03-31                -0.0229           -0.0132               -0.0200
 4 2004-04-30                 0.00178          -0.0189               -0.0299
 5 2004-05-28                 0.00760           0.0171                0.0512
 6 2004-06-30                 0.0613            0.0185                0.0326
 7 2004-07-30                -0.0137           -0.0322               -0.0755
 8 2004-08-31                 0.00668           0.00244              -0.0249
 9 2004-09-30                 0.00836           0.0100                0.0329
10 2004-10-29                 0.0669            0.0129                0.0501
# ℹ 173 more rows
…
Mean-Variance Analysis (Efficient Frontier)

The efficient frontier is a concept in financial portfolio theory that represents the set of optimal portfolios that offer the highest expected return for a given level of risk, or the lowest risk for a given level of expected return. It is useful for investors and portfolio managers as it helps identify the optimal balance between risk and return, enabling them to construct portfolios that maximize potential gains while minimizing exposure to volatility.

To apply this framework to our portfolio, we first need to modify our monthly stock returns table so that the date column is removed.

stock_returns_monthly_wide[, -1]

# A tibble: 183 × 11
        TLT     MSFT      HPQ     COST        F     PEP      JPM       RTX
      <dbl>    <dbl>    <dbl>    <dbl>    <dbl>   <dbl>    <dbl>     <dbl>
 1  0.0308   0.00729  0.0272   0.0171  -0.0901   0.0172  0.0620   0.0125  
 2  0.0228  -0.0405  -0.0454   0.0520  -0.0543   0.0982  0.0548  -0.0324  
 3  0.0141  -0.0603   0.00934 -0.0322  -0.0131   0.0407  0.0227  -0.0631  
 4 -0.0624   0.0481  -0.137   -0.00293  0.139    0.0119 -0.0964  -0.000463
 5 -0.00258  0.00383  0.0782   0.0134  -0.0332  -0.0206 -0.0202  -0.0149  
 6  0.0105   0.0888  -0.00292  0.0865   0.0539   0.0138  0.0524   0.0812  
 7  0.0153  -0.00245 -0.0450  -0.00900 -0.0531  -0.0720 -0.0286   0.0221  
 8  0.0417  -0.0389  -0.112    0.0113  -0.0414   0       0.0603   0.00821 
 9  0.00950  0.0128   0.0527   0.00826 -0.00425 -0.0226  0.00379 -0.00564 
10  0.0176   0.0116  -0.00480  0.155   -0.0655   0.0191 -0.0202  -0.00600 
# ℹ 173 more rows
# ℹ 3 more variables: PG <dbl>, CVX <dbl>, JNJ <dbl>
…
